Type - Code
Provider - 185169123
Provider - 185168123
Member - 158462598
Manager - 456484258
Operator - 521485159
Member - 158452598
Operator - 521485169
Provider - 392713485
Member - 846294716
Manager - 736294815
Operator - 627182539
Member - 981752463
Operator - 427651938
Provider - 561839274
Member - 246571839
Manager - 817463529
Operator - 934675128
Member - 397584621
Operator - 671893452
Member - 123
Member - 123

Provider - 1299


Member - 11111
Provider - 11111