2510,4243,-401.62
2426,4184.6,-110.29
2331.7,4111.5,182.68
2227,4023.5,474.89
2111.3,3919.7,765.02
1984.4,3799.7,1051.6
1845.8,3662.7,1332.8
1695.4,3508.4,1606.9
1533,3336.5,1871.8
1358.8,3146.6,2125.2
1173,2939,2364.6
976.11,2713.9,2587.5
768.78,2472,2791.3
552.01,2214,2973.5
327.06,1941.4,3131.4
95.43,1655.9,3263
-141.14,1359.4,3366.1
-380.73,1054.4,3439.3
-621.29,743.44,3481.6
-860.75,429.23,3492.4
