dday,x,y,z
134.450248828,-1222.977,-5009.836,-1989.69
134.451406224,-1183.979,-5006.848,-1713.887
134.452563618,-1141.726,-4991.229,-1433.471
134.453721013,-1095.96,-4962.246,-1148.963
134.454878409,-1046.416,-4919.14,-860.969
134.456035802,-992.832,-4861.128,-570.196
134.457193197,-934.948,-4787.407,-277.463
134.45835059,-872.512,-4697.166,16.282
134.459507986,-805.29,-4589.597,309.951
134.460665382,-733.067,-4463.912,602.295
134.461822775,-655.663,-4319.361,891.894
134.462980171,-572.939,-4155.265,1177.145
134.464137564,-484.812,-3971.044,1456.247
134.465294959,-391.269,-3766.258,1727.208
134.466452714,-292.35,-3540.581,1987.92
134.46761011,-188.287,-3294.138,2235.861
134.468767503,-79.336,-3027.139,2468.614
134.469924899,34.092,-2740.208,2683.583
134.471082293,151.452,-2434.359,2878.152
134.472239688,272.065,-2111.035,3049.763
134.473397082,395.127,-1772.115,3196.023
134.474554476,519.72,-1419.907,3314.809
134.475711872,644.846,-1057.1,3404.369
134.476869265,769.453,-686.697,3463.423
134.478026661,892.475,-311.916,3491.226
134.479184054,1012.877,63.923,3487.615
134.48034145,1129.692,437.534,3453.009
134.481498843,1242.053,805.777,3388.372
134.482656238,1349.215,1165.765,3295.144
134.483813631,1450.574,1514.939,3175.158
134.484971027,1545.668,1851.126,3030.531
134.48612842,1634.169,2172.555,2863.567
134.487285816,1715.876,2477.856,2676.66
134.488443209,1790.69,2766.037,2472.211
134.489600605,1858.605,3036.448,2252.566
134.490757998,1919.684,3288.737,2019.964
134.491915394,1974.045,3522.805,1776.508
134.493072786,2021.846,3738.759,1524.14
134.494230182,2063.27,3936.871,1264.638
134.495387575,2098.518,4117.54,999.61
134.496544971,2127.799,4281.26,730.501
134.497702364,2151.323,4428.592,458.602
134.498860122,2169.303,4560.183,184.976
134.515063643,1935.459,5094.965,-3418.499
134.562517179,-1918.269,968.511,-7445.781
134.600711924,-4769.071,-1939.441,-2394.971
134.630804543,471.776,-840.767,3494.289
134.631961939,843.884,-713.404,3475.096
134.633119332,1210.484,-585.071,3425.375
134.634276727,1568.675,-456.918,3346.348
134.63543412,1915.871,-330.021,3239.67
134.636591516,2249.866,-205.358,3107.331
134.637748909,2568.851,-83.781,2951.553
134.638906305,2871.419,33.993,2774.689
134.640063698,3156.547,147.387,2579.139
134.641221094,3423.554,255.958,2367.274
134.642378487,3672.066,359.389,2141.384
134.643535883,3901.964,457.475,1903.63
134.644693275,4113.338,550.112,1656.029
134.645850671,4306.447,637.275,1400.433
134.647008064,4481.676,719.01,1138.526
134.64816546,4639.508,795.42,871.827
134.649322853,4780.49,866.647,601.699
134.650480249,4905.215,932.872,329.354
