System,Planet #,Mass Code,Region,"GEC entry, or screenshot",Star classes,Main star,Solo star?,Gas Giant Type,Mass (E-m),Radius (km),Temperature (K),Gravity,Orb. Period (d),SmA (AU),Orb. Ecc.,Orb. Incl. (deg),Arg. Pe (deg),Rot. Period (d),Axial Tilt (deg),Ringed?,No. of moons,Forum report,Likely discoverer,In-game FD tag,EDSM uploader,EDSM date,Codex reporter,Codex date,Dist. from Sol (LY),Coord X,Coord Y,Coord Z,Atm H2,Atm He,Atm O2,Atm H2O,Atm NH3,Atm CH4,Main star age (My),Median age of type
Blaa Hype TF-V d3-144,3,d,10,Islands in the Sea,A7 VAB,A,TRUE,Class III,409.0508,74817,,2.97,93.3,0.1,0.1728,-3.59,45.99,96.5,0.0053,TRUE,2,3308-02-15,TSR Ruthless,TSR Ruthless,Mooing,3308-02-15,TSR Ruthless,3308-02-13,12741,3895.5625,-272.0625,12128.1875,73.71,26.29,,,,,558,1428
Bleia Dryiae HF-W b35-1,2,b,18,Icy Muse,M6 VA,M,TRUE,Water-based life,763.0101,77256,176.666687,5.2,1680.2,1.85,0.0004,0.09,27.85,0.8,2.3871,FALSE,4,3302-07-26,Eryn Liamson,Eryn Liamson,Eryn Liamson,3302-01-23,Codex bugged,,4899,-836.4,-112.56,4826.15,73.56,26.37,0.06,,,,1614,6096
Bleia Dryoae UV-C c29-52,3,c,19,Garnet Raindrops,G4 VAB,G,TRUE,Class I,20.4406,24617,109.874001,1.37,910.2,0.02,0.0585,8.49,103.34,1.4,0.483,FALSE,5,3305-04-03,Masiliy,Babaa Yaga,Babaa Yaga,3304-12-27,Masiliy,3304-12-22,8477,6607.96875,-109.25,5309.1875,74.16,25.84,,,,,8260,2926
Blua Hypa HT-F d12-1226,12,d,9,Emerald Vanguard,F0 VB,F,TRUE,Water-based life,5.4246,15740,,0.89,3344.4,5.24,0.0295,0.16,147.18,1.8,-0.2141,TRUE,3,3302-05-14,Unclear,Dusty McDusterson,3.14285,3302-05-01,Codex bugged,,14611,-7010.28,-184.62,12817.62,73.9,26.06,,,,,1578,1664
Boekh AO-H b27-33,1,b,9,Screenshot,M2 VA,M,TRUE,Class I,491.4619,75535,117.776886,3.5,5188.2,4.17,0.0049,-1.59,16.03,1.1,0.7897,FALSE,5,3307-01-01,TieDefender,TieDefender,Arunden,3307-01-05,TieDefender,3306-12-30,19529,-10940.03125,-598.8125,16165.625,73.91,26.09,,,,,2148,6096
Boelts QJ-Y d1-1149,5,d,9,Arcane Allure,F9 VB,F,TRUE,Water-based life,19.0608,28011,176.666641,0.99,87.6,0.09,0.0246,6.67,53.96,87.8,-0.1218,TRUE,1,3309-07-03,Hamrobber,Hamrobber,Hamrobber,3307-12-14,Codex bugged,,17511,-7538.34375,-452.15625,15799.40625,73.22,26.75,,,,,10164,1664
Boelts XH-C c29-854,,c,9,Strawberry Cake,"K7 VA, M7 VA",K,FALSE,Class II,878,77048,225.990601,6.02,2318.5,3.38,0,0,136.45,0.4,-1.839,FALSE,4,3305-02-13,Phaedra,Johntass,Phaedra,,Phaedra,3305-01-14,18062,-6571,-233,16823,74.7,25.3,,,,,4346,5622
Byoi Aewsy RZ-F d11-104,1,d,9,Monet's Gift,F7 VB,F,TRUE,Water-based life,587.8331,76387,176.666656,4.1,10927.3,10.18,0.0002,-3.93,253.33,1.5,0.0139,FALSE,5,3307-01-18,TIEChief,TIEChief,TIEChief,3307-01-06,Codex bugged,,15202,-5831.84375,492.6875,14029.84375,73.03,26.91,0.06,,,,1204,1664
Byoomao JC-B d1-3681,3,d,1,Minotaur's Treasure,A9 VB,A,TRUE,Class III,2175.3752,72338,,16.91,990.6,2.33,0.015,-0.27,86.12,0.5,2.2523,TRUE,9,3305-03-09,Baugers,Baugers,Baugers,,Baugers,3305-02-28,24677,-592.46875,-58.65625,24669.875,73.79,26.21,,,,,1282,1428
Byoomao LY-G d11-9374,,d,1,Phosphoric Giant,"F5 VI, F9 VI",F,FALSE,Class III,2263.1943,71709,,17.9,178.4,0,0.1882,-1.54,342.94,1.5,1.5521,TRUE,,3309-02-01,Cyanidex,Cyanidex,Cyanidex,,None,,25506,-426.46875,-351.9375,25499.59375,72.95,27.05,,,,,8398,756
Byoomi XE-X d2-7844,4,d,1,Crimson Bayou,F9 VB,F,TRUE,Ammonia-based life,10.2565,31990,133.438171,0.41,168.3,0.09,0.1688,9.42,125.56,169.1,-0.4771,TRUE,1,3305-07-29,Quag-maier,Testiculan Scrotomax,Rikusen,3304-02-17,Quag-maier,3305-07-15,24853,-1697.4375,-195.03125,24794.40625,74.1,25.86,,,,,8398,1664
Col 285 Sector VU-M c8-1,4,c,18,Radioactive Green,K6 VA,K,TRUE,Ammonia-based life,230.4359,66744,133.510468,2.1,1574,2.38,0.0013,-3.0349,87.38,1.4,-3.0349,FALSE,3,3302-12-15,HartMetall,HartMetall,FalconFly,,Xdeathsquad 3X,3304-12-11,300,138.34375,264.71875,-22.6875,73.95,26.02,,,,,8276,5622
Cryaa Ain ZJ-R e4-4,,e,5,Oread's Realm,"Neutron Star, K2 VAB",NS,FALSE,Class II,30.5117,44835,,0.62,391.19,0.14,0.1854,9.3,220.72,399.2,-0.2344,TRUE,2,3305-09-22,Qube_nico,Babaa Yaga,Qube_nico,,Qube_nico,3305-09-15,15454,1101.84375,2824,15153.75,73.39,26.61,,,,,11200,7002
Dryoea Prao FH-S d5-3063,9,d,2,Rubia,A6 VI,A,TRUE,Class II,103.1566,53166,164.465302,1.48,5422.7,7.18,0.0064,-0.01,185.84,2.8,96.23,FALSE,9,3307-05-02,Aunty Sledge,Aunty Sledge,Mooing,3307-05-02,Aunty Sledge,3307-05-01,21499,3448.3125,-94.75,21220.78125,72.7,27.3,,,,,2038,1428
Dryooe Flyou XS-Z c14-199,4,c,9,Screenshot,M0 VA,M,TRUE,Class I,43.1285,46983,,0.79,1823.1,2.36,0,-0.12,313.77,0.6,-2.1936,TRUE,4,3309-08-30,,Melvin Carter,Arcanic,3309-08-30,,,20871,-9042.4375,-873.90625,18789.75,74.04,25.96,,,,,9692,6096
Dryooe Groa QX-F c16,,c,15,Screenshot,"G5 VAB, M6 VA",G,FALSE,Class I,83.1779,57643,,1.02,2883.6,3.75,0.0097,3.55,271.72,1.1,-0.4832,TRUE,7,3308-09-24,M. Poole,Orange!,Orange!,3308-09-24,M. Poole,3308-09-19,36595,-19504.28125,-53.0625,30964.5,74.28,25.72,,,,,566,2926
Dryooe Prou FF-Z d696,5,d,4,Abeona's Blessing,A8 VI,A,TRUE,Water-based life,4.35,21810,176.666672,0.37,283.9,0.15,0.0878,4.09,80.12,1.3,-0.1927,TRUE,3,3304-08-18,Akurei,Akurei,Odegard,3304-08-19,Codex bugged,,22821,-9378,-861,20787,72.84,27.08,0.08,,,,1440,1428
Eafoff LN-Q d6-0,1,d,34,A Floofy Giant,Neutron Star,NS,TRUE,Class I,114,60188,,1.29,5414.2,5.35,0.0161,3.61,28.02,0.8,-0.2113,TRUE,0,3304-08-16,EllieVader,TheWorldPolice,Shnyrik,3304-10-22,Odegard,3304-12-13,10441,8729,1209,-5599,74.36,25.64,,,,,10986,7002
Eimbaith LW-W e1-290,7,e,3,Viridi Aqua,Neutron Star,NS,TRUE,Water Giant,23.6,18264,,2.87,9767.6,9.66,0.0105,0.2,86.13,1.6,0.0066,TRUE,0,3304-10-30,Taen,Taen,Taen,3304-10-29,Tokiglassblower,3305-02-14,30140,-1421,1618,30063,,,,98.41,0.53,0.53,7444,7002
Eodgorph LM-W e1-167,,e,9,Screenshot,"B0 VZ, A0 VZ, TTS7 VI, F0 VZ",B,FALSE,Class III,66.8083,53855,276.751648,0.94,2511,5.8,0.0199,-0.19,234.61,0.4,-0.1869,FALSE,0,3306-06-28,WikedHunta,WikedHunta,Orvidius,,WikedHunta,3306-06-21,12369,-5923.46875,97.8125,10857.40625,74,26,,,,,128,126
Eol Prou KW-L c8-32,4,c,9,Glow Bug Giant,K8 VA,K,TRUE,Water-based life,389,74428,,2.86,1126.4,1.65,0.001,-0.29,233.67,1.1,0.2496,TRUE,,3303-02-08,Ljh888,Ljh888,Jason Thorpe,3302-08-29,Codex bugged,,22006,-9581.68,-932.21,19788.59,74.12,25.83,,,,,10622,5622
Eor Aowsy GR-W e1-1381,,e,4,Odin's Glory,"B0 VZ, A0 VZ",B,FALSE,Class IV,3749.6399,64789,,36.34,541.3,0,0.1923,-7.78,87.85,0.8,-0.7698,TRUE,0,3305-04-15,Mpie,Mpie,Kiel42,,Mpie,3305-02-21,18008,-5099.75,141.25,17269.78125,74.24,25.76,,,,,188,126
Floasly TE-X d2-25,,d,16,Lighthouse of Lemnos,"A9 VAB, F3 VB",A,FALSE,Class III,2053,72845,,15.74,3663,5.2,0.1967,-39.36,130.01,1.7,1.0217,FALSE,1,3304-10-27,Wasdie,JimBot70,Wasdie,3303-09-07,MuteCV,3304-12-21,22678,-17387.15625,-219.5,14558,73.27,26.73,,,,,1424,1428
Floawns FX-L b36-24,1,b,5,Slotin's Latte,M3 VA,M,TRUE,Ammonia-based life,450.1209,75689,121.179939,3.2,2639.9,2.85,0,0.03,17.91,2,0.1657,TRUE,4,3308-01-30,P U G N U T 808,OrangePhoenix,Mooing,3308-01-30,P U G N U T 808,3308-01-26,15189,1372.1875,-1018.375,15092.125,74.12,25.88,,,,,9038,6096
Flyiedge KA-V b8-5,3,b,18,Screenshot,M0 VA,M,TRUE,Class I,288.4954,71704,122.29538,2.28,1209.6,1.69,0.0026,0.38,290.14,1.1,0.4622,FALSE,5,3309-08-13,Samotny Vandrounik,Samotny Vandrounik,IsorYn / Samotny Vandrounik,,None,,8985,-3936.65625,-158.59375,8075.53125,73.7,26.3,,,,,1110,6096
Flyue Bloae QN-Y c2-0,,c,13,Raspberry Crème,"K1 VAB, M5 VA, K8 VA",K,FALSE,Class II,593.7786,76391,,4.14,1245.1,1.81,0.0003,-0.01,94.79,1.4,-0.4627,FALSE,4,3306-04-29,"""Rusted Bulk"" Mike","""Rusted Bulk"" Mike","""Rusted Bulk"" Mike",3306-04-29,"""Rusted Bulk"" Mike",3306-04-29,48921,-10844.1875,-504.125,47701.125,73.39,26.61,,,,,4570,5622
Gludgoea AA-A e25,,e,33,Rhadamanthus's Eye,"A0 VZ, TTS5 VA, F0 VZ, F0 VZ",A,FALSE,Class III,1663.3035,74923,,12.05,96.5,0.07,0.0796,8.33,245.6,2.3,0.2145,FALSE,0,3307-11-15,LBR=Bartels,LBR=Bartels,Babaa Yaga,3307-11-17,LBR=Bartels,3307-11-04,6167,-3865.96875,29.09375,-4804.75,73.36,26.64,,,,,110,1428
Gongae QW-L c24-0,2,c,41,Dreamer Blush,G7 VAB,G,TRUE,Class III,2226.2751,72587,,17.19,684.8,1.41,0,0.08,172.1,0.6,-0.3315,TRUE,4,3305-03-19,Gobo Senbei,Gobo Senbei,Wotherspoon,,Francis Iain Cameron,3305-01-19,8989,-383,-101,-8980,73.44,26.56,,,,,11920,2926
Graea Hypue BX-U b6-0,,b,10,Tiny Green,"M5 VA, L0 V",M,FALSE,Class II,977.7632,76278,204.975662,6.84,4602.5,4.28,0.0011,0.22,210.34,1.2,2.8899,TRUE,,3308-11-26,Charles Lightner,Charles Lightner,Charles Lightner,,Charles Lightner,3308-11-26,13203,-868.5,-534.3125,13163.4375,72.96,27.04,,,,,3598,6096
Hypao Chraea VQ-T d4-8,,d,27,Diamonds in the Rough,"Neutron Star, M4 VA",NS,FALSE,Ammonia-based life,129.1025,63452,,1.3,5557,4.17,0.0088,0.42,207.22,0.8,-0.4757,TRUE,4,3305-06-30,Adamned,Mooing,Adamned,,Adamned,3305-04-04,43121,-28131.46875,1034.53125,32664.3125,72.93,27.06,,,,,4906,7002
Lysoovsky BH-L d8-26,3,d,18,Green Pentagon,F5 VI,F,TRUE,Class III,1924.777,73748,,14.4,1606.1,2.78,0.01,0.13,305.75,1.4,0.4039,TRUE,6,3307-03-17,Barden Fayle,Hoschi247,Barden Fayle,3307-03-17,None,,9645,-6215,461,7362,73.72,26.28,,,,,5098,1664
Noijo YG-T d4-97,,d,3,Verdant Horizon,"K1 VAB, M5 VA, L1 V",K,FALSE,Class II,291.4802,72125,160.396164,2.28,2275.2,3.27,0.0005,-1.36,356.25,0.7,-0.4217,FALSE,3,3307-06-21,Psilly Cybin,Captain Scrotium,Captain Scrotium,,Psilly Cybin,3307-06-11,32838,2537.09375,2197.40625,32665.84375,74.37,25.63,,,,,4082,5622
Nyeajaae IT-M c9-19,3,c,18,Viridian Dreams,K2 VAB,K,TRUE,Class I,362.599,73738,135.434097,2.71,3241.4,3.74,0.0034,-0.75,302.1,1.7,-0.3898,TRUE,6,3305-04-03,WH1TED3L1VERYVAN,WH1TED3L1VERYVAN,DCSignal,,Ibanez X,3305-01-31,7804,-3329,-361,7049,73.39,26.61,,,,,8524,5622
Oochody AA-Y c17-1,2,c,33,Peppermint Stripes,K8 VA,K,TRUE,Class I,3.8768,18945,137.307129,0.44,152.2,0.08,0.0177,-4.33,189.77,152.6,-0.0489,TRUE,0,3307-09-01,Strelyaj,Strelyaj,Holy Cow!,,Strelyaj,3307-08-22,3901,-3570.15625,-141.71875,-1566.90625,74.57,25.43,,,,,4644,5622
Pheia Aewsy LV-Y d11,,d,34,Great Orme's Flowers,"A9 VB, K9 VA",A,FALSE,Class I,212.0347,67972,126.062111,1.87,2189.5,2.58,0.0043,-0.24,218.49,0.7,-143.18,FALSE,,3306-06-19,DarthMaaar,DarthMaaar,Xansidhe,,None,,7436,1039.0625,240.46875,-7358.875,71.5,28.5,,,,,2318,1428
Plaa Ain YH-G b13-0,,b,10,Candy River,"M2 VA, M2 VA",M,FALSE,Class I,348.7041,73563,132.010391,2.62,1325.4,1.81,0.0023,-0.79,95.41,1,-0.0312,TRUE,6,3308-11-10,Tyrion Rotenkamp,Tyrion Rotenkamp,Tyrion Rotenkamp,,None,,9514,861.875,497.71875,9461.40625,72.95,27.05,,,,,334,6096
Plieliae SM-C c29-11,,c,19,Jaded Ghost,"K1 VAB, M7 VA",K,FALSE,Class II,430.688,74998,174.249985,3.11,450.8,0.75,0.0026,-0.92,136.86,0.6,2.9105,TRUE,3,3308-11-05,ToniM47,ToniM47,Arcanic,3308-11-08,ToniM47,3308-11-03,10997,6116.34375,-218,9136.71875,72.99,27.01,,,,,5484,5622
Ploi Thua AY-T b3-0,2,b,34,Screenshot,M5 VA,M,TRUE,Ammonia-based life,485.3935,75752,107.355812,3.44,5364.8,4.14,0,0.4,146.93,1.1,1.784,TRUE,5,3309-08-24,Иматᴎс,Arcanic,Arcanic,,Иматᴎс,3309-08-23,3667,-941.09375,76.5,-3543.09375,74.14,25.82,,,,,10022,6096
Praea Euq VP-M c21-1,1,c,18,Green Glory,G5 VAB,G,TRUE,Class III,2205.04,72669,,16.99,1149,2.04,0.0002,0.04,218.21,1.1,2.7525,TRUE,3,3306-02-05,Leo Sagan,Leo Sagan,Demasiaduh,,Lawwrence,3306-02-05,1389,716.40625,239.09375,1166.25,73.33,26.67,,,,,4874,2926
Pro Flee UY-Q c18-0,2,c,42,Distant Wonder,K7 VA,K,TRUE,Class I,130.6178,64117,129.582138,1.29,129.8,0.12,0.1469,0.59,261.83,131.7,-0.3682,TRUE,1,3307-06-21,Ninjahat,Holy Cow!,Ninjahat,,Ninjahat,3307-06-14,55410,-38944.65625,17.03125,39415.4375,73.82,26.18,,,,,12985,5622
Pru Thae BF-C c27-1,1,c,35,Equatorial Jewels,G3 VAB,G,TRUE,Class II,412.2899,74043,,3.06,1227.9,2.14,0.0024,-0.01,222.53,1.7,1.4374,TRUE,5,3306-05-27,SSHTM,Mooing,SSHTM,,SSHTM,3306-05-16,9095,9016.3125,256.8125,-1163.125,74.43,25.57,,,,,3244,2926
Pyroifoea SS-Y b15-0,11,b,18,Eerie Eyes,M0 VA,M,TRUE,Water-based life,570.8633,76344,176.666656,3.98,1192.9,1.67,0.0001,-0.35,171.56,1.2,1.6419,TRUE,,3308-12-15,Homunk,Homunk,Homunk,3308-12-14,Codex bugged,,6548,3098.0625,-1020.59375,5677.1875,73.37,26.61,,,,,4236,6096
Shaulai DL-P d5-274,7,d,30,Eldritch Gate's Lost Treasure,K1 VA,K,TRUE,Water-based life,671.0637,77074,217.499985,4.6,2127.3,3.16,0.0006,1.69,211.7,0.3,-0.8666,TRUE,4,3301-10-21,Kelly Eldridge,Kelly Eldridge,Orange!,3308-08-16,Codex bugged,,35924,-21382.65625,-0.84375,28866.625,73.9,26.03,0.07,,,,644,5622
Slegi DH-J d10-27,5,d,34,Prasinos Soul,A4 VI,A,TRUE,Class II,41.959,45085,206.818893,0.84,2761.2,4.67,0.0009,0.82,148.03,1.7,22.88,FALSE,8,3306-10-28,Dan_1,Dan_1,Dan_1,,Dan_1,3306-10-24,3108,-1535.09375,-128.28125,-2699.6875,74.2,25.8,,,,,1600,1428
Squern AF-N c21-0,4,c,6,Latte Verde,K3 VA,K,TRUE,Class I,11.3108,27124,,0.63,372.5,0.01,0.0831,-5.8,158.12,1.6,-0.1925,TRUE,3,3306-02-01,Reverse Samurai,Guy De Lombard,Thormelius,,Reverse Samurai,3306-02-01,30190,13949,-934.6875,26758,74.7,25.3,,,,,10954,5622
Synookio EI-J d9-1,7,d,10,Neon Beacon,F5 VB,F,TRUE,Class I,21.2161,20796,119.986717,2,626.4,0.18,0.163,7.72,349.14,1.9,-0.5153,TRUE,2,3305-09-22,Dormus,Starsong67,Babaa Yaga,3305-09-22,Dormus,3305-09-17,12553,-60.625,384.25,12546.75,72.41,27.59,,,,,5192,1664
Syrive KR-W d1-144,6,d,24,Pink Haze,G2 VAB,G,TRUE,Class II,656.3364,76603,,4.55,524.9,0.02,0.1269,9.8,330.34,1.1,5.98,FALSE,4,3306-05-04,Alesha78,Shnyrik,Straha Yeagar,3306-05-04,Alesha78,3306-04-25,54280,2877.84375,59.6875,54203.9375,73.8,26.2,,,,,718,2926
Syrivu AN-M c7-2,3,c,23,Green Aspirant,K5 VA,K,TRUE,Class I,159.549,65029,125.933167,1.53,376.3,0,0.0031,-1.38,219.46,1.2,2.4981,TRUE,5,3307-01-18,Mythyc,Dantassii Tacatii,Mythyc,3307-01-18,Mythyc,3307-01-18,56707,16353.15625,118.625,54298,74.62,25.38,,,,,11756,5622
Thaileia PJ-O d7-74,,d,18,Screenshot,A7 VAB,A,FALSE,Water-based life,273.4926,70644,176.666656,2.23,437.3,0,0.0107,-4.19,271.35,1.4,0.3771,FALSE,6,3309-07-03,Untamed Rabbit,Untamed Rabbit,Untamed Rabbit,3308-05-01,Codex bugged,,4764,718.0625,-198,4705.53125,72.24,27.68,0.07,,,,1012,1428
Vegnao PA-S c6-43,3,c,3,Sliver of Hope,K8 VA,K,TRUE,Class I,306.239,72590,113.841248,2.36,2660.6,2.97,0.0001,0,152.25,0.7,-0.4692,TRUE,4,3307-12-11,Big Triangle,Big Triangle,Big Triangle,,Big Triangle,3307-12-08,36604,4059.59375,927.25,36366.375,73.93,26.07,,,,,4260,5622
Wembaei UM-A b57-4,1,b,30,Screenshot,M0 VA,M,TRUE,Class III,954.1045,77557,299.305664,6.45,76.3,0.02,0.0598,-8.16,230.02,-87.7,-3.093,TRUE,2,3306-02-15,Atahualpha,Zer0axis,Mooing,3306-02-17,Atahualpha,3306-02-15,33830,-23334.28125,-865.25,24478.9375,73.55,26.45,,,,,5558,6096
