%!PS-Adobe-3.0 EPSF-3.0
%%Creator: (MATLAB, The Mathworks, Inc. Version 9.13.0.2105380 \(R2022b\) Update 2. Operating System: Linux)
%%Title: /home/joseff/Documents/uni/GEO346/9-14/prep/prep2.eps
%%CreationDate: 2023-09-14T14:40:24
%%Pages: (atend)
%%BoundingBox:     0     0   420   315
%%LanguageLevel: 3
%%EndComments
%%BeginProlog
%%BeginResource: procset (Apache XML Graphics Std ProcSet) 1.2 0
%%Version: 1.2 0
%%Copyright: (Copyright 2001-2003,2010 The Apache Software Foundation. License terms: http://www.apache.org/licenses/LICENSE-2.0)
/bd{bind def}bind def
/ld{load def}bd
/GR/grestore ld
/GS/gsave ld
/RM/rmoveto ld
/C/curveto ld
/t/show ld
/L/lineto ld
/ML/setmiterlimit ld
/CT/concat ld
/f/fill ld
/N/newpath ld
/S/stroke ld
/CC/setcmykcolor ld
/A/ashow ld
/cp/closepath ld
/RC/setrgbcolor ld
/LJ/setlinejoin ld
/GC/setgray ld
/LW/setlinewidth ld
/M/moveto ld
/re {4 2 roll M
1 index 0 rlineto
0 exch rlineto
neg 0 rlineto
cp } bd
/_ctm matrix def
/_tm matrix def
/BT { _ctm currentmatrix pop matrix _tm copy pop 0 0 moveto } bd
/ET { _ctm setmatrix } bd
/iTm { _ctm setmatrix _tm concat } bd
/Tm { _tm astore pop iTm 0 0 moveto } bd
/ux 0.0 def
/uy 0.0 def
/F {
  /Tp exch def
  /Tf exch def
  Tf findfont Tp scalefont setfont
  /cf Tf def  /cs Tp def
} bd
/ULS {currentpoint /uy exch def /ux exch def} bd
/ULE {
  /Tcx currentpoint pop def
  gsave
  newpath
  cf findfont cs scalefont dup
  /FontMatrix get 0 get /Ts exch def /FontInfo get dup
  /UnderlinePosition get Ts mul /To exch def
  /UnderlineThickness get Ts mul /Tt exch def
  ux uy To add moveto  Tcx uy To add lineto
  Tt setlinewidth stroke
  grestore
} bd
/OLE {
  /Tcx currentpoint pop def
  gsave
  newpath
  cf findfont cs scalefont dup
  /FontMatrix get 0 get /Ts exch def /FontInfo get dup
  /UnderlinePosition get Ts mul /To exch def
  /UnderlineThickness get Ts mul /Tt exch def
  ux uy To add cs add moveto Tcx uy To add cs add lineto
  Tt setlinewidth stroke
  grestore
} bd
/SOE {
  /Tcx currentpoint pop def
  gsave
  newpath
  cf findfont cs scalefont dup
  /FontMatrix get 0 get /Ts exch def /FontInfo get dup
  /UnderlinePosition get Ts mul /To exch def
  /UnderlineThickness get Ts mul /Tt exch def
  ux uy To add cs 10 mul 26 idiv add moveto Tcx uy To add cs 10 mul 26 idiv add lineto
  Tt setlinewidth stroke
  grestore
} bd
/QT {
/Y22 exch store
/X22 exch store
/Y21 exch store
/X21 exch store
currentpoint
/Y21 load 2 mul add 3 div exch
/X21 load 2 mul add 3 div exch
/X21 load 2 mul /X22 load add 3 div
/Y21 load 2 mul /Y22 load add 3 div
/X22 load /Y22 load curveto
} bd
/SSPD {
dup length /d exch dict def
{
/v exch def
/k exch def
currentpagedevice k known {
/cpdv currentpagedevice k get def
v cpdv ne {
/upd false def
/nullv v type /nulltype eq def
/nullcpdv cpdv type /nulltype eq def
nullv nullcpdv or
{
/upd true def
} {
/sametype v type cpdv type eq def
sametype {
v type /arraytype eq {
/vlen v length def
/cpdvlen cpdv length def
vlen cpdvlen eq {
0 1 vlen 1 sub {
/i exch def
/obj v i get def
/cpdobj cpdv i get def
obj cpdobj ne {
/upd true def
exit
} if
} for
} {
/upd true def
} ifelse
} {
v type /dicttype eq {
v {
/dv exch def
/dk exch def
/cpddv cpdv dk get def
dv cpddv ne {
/upd true def
exit
} if
} forall
} {
/upd true def
} ifelse
} ifelse
} if
} ifelse
upd true eq {
d k v put
} if
} if
} if
} forall
d length 0 gt {
d setpagedevice
} if
} bd
/RE { % /NewFontName [NewEncodingArray] /FontName RE -
  findfont dup length dict begin
  {
    1 index /FID ne
    {def} {pop pop} ifelse
  } forall
  /Encoding exch def
  /FontName 1 index def
  currentdict definefont pop
  end
} bind def
%%EndResource
%%BeginResource: procset (Apache XML Graphics EPS ProcSet) 1.0 0
%%Version: 1.0 0
%%Copyright: (Copyright 2002-2003 The Apache Software Foundation. License terms: http://www.apache.org/licenses/LICENSE-2.0)
/BeginEPSF { %def
/b4_Inc_state save def         % Save state for cleanup
/dict_count countdictstack def % Count objects on dict stack
/op_count count 1 sub def      % Count objects on operand stack
userdict begin                 % Push userdict on dict stack
/showpage { } def              % Redefine showpage, { } = null proc
0 setgray 0 setlinecap         % Prepare graphics state
1 setlinewidth 0 setlinejoin
10 setmiterlimit [ ] 0 setdash newpath
/languagelevel where           % If level not equal to 1 then
{pop languagelevel             % set strokeadjust and
1 ne                           % overprint to their defaults.
{false setstrokeadjust false setoverprint
} if
} if
} bd
/EndEPSF { %def
count op_count sub {pop} repeat            % Clean up stacks
countdictstack dict_count sub {end} repeat
b4_Inc_state restore
} bd
%%EndResource
%FOPBeginFontDict
%%IncludeResource: font Courier-Oblique
%%IncludeResource: font Courier-BoldOblique
%%IncludeResource: font Courier-Bold
%%IncludeResource: font ZapfDingbats
%%IncludeResource: font Symbol
%%IncludeResource: font Helvetica
%%IncludeResource: font Helvetica-Oblique
%%IncludeResource: font Helvetica-Bold
%%IncludeResource: font Helvetica-BoldOblique
%%IncludeResource: font Times-Roman
%%IncludeResource: font Times-Italic
%%IncludeResource: font Times-Bold
%%IncludeResource: font Times-BoldItalic
%%IncludeResource: font Courier
%FOPEndFontDict
%%BeginResource: encoding WinAnsiEncoding
/WinAnsiEncoding [
/.notdef /.notdef /.notdef /.notdef /.notdef
/.notdef /.notdef /.notdef /.notdef /.notdef
/.notdef /.notdef /.notdef /.notdef /.notdef
/.notdef /.notdef /.notdef /.notdef /.notdef
/.notdef /.notdef /.notdef /.notdef /.notdef
/.notdef /.notdef /.notdef /.notdef /.notdef
/.notdef /.notdef /space /exclam /quotedbl
/numbersign /dollar /percent /ampersand /quotesingle
/parenleft /parenright /asterisk /plus /comma
/hyphen /period /slash /zero /one
/two /three /four /five /six
/seven /eight /nine /colon /semicolon
/less /equal /greater /question /at
/A /B /C /D /E
/F /G /H /I /J
/K /L /M /N /O
/P /Q /R /S /T
/U /V /W /X /Y
/Z /bracketleft /backslash /bracketright /asciicircum
/underscore /quoteleft /a /b /c
/d /e /f /g /h
/i /j /k /l /m
/n /o /p /q /r
/s /t /u /v /w
/x /y /z /braceleft /bar
/braceright /asciitilde /bullet /Euro /bullet
/quotesinglbase /florin /quotedblbase /ellipsis /dagger
/daggerdbl /circumflex /perthousand /Scaron /guilsinglleft
/OE /bullet /Zcaron /bullet /bullet
/quoteleft /quoteright /quotedblleft /quotedblright /bullet
/endash /emdash /asciitilde /trademark /scaron
/guilsinglright /oe /bullet /zcaron /Ydieresis
/space /exclamdown /cent /sterling /currency
/yen /brokenbar /section /dieresis /copyright
/ordfeminine /guillemotleft /logicalnot /sfthyphen /registered
/macron /degree /plusminus /twosuperior /threesuperior
/acute /mu /paragraph /middot /cedilla
/onesuperior /ordmasculine /guillemotright /onequarter /onehalf
/threequarters /questiondown /Agrave /Aacute /Acircumflex
/Atilde /Adieresis /Aring /AE /Ccedilla
/Egrave /Eacute /Ecircumflex /Edieresis /Igrave
/Iacute /Icircumflex /Idieresis /Eth /Ntilde
/Ograve /Oacute /Ocircumflex /Otilde /Odieresis
/multiply /Oslash /Ugrave /Uacute /Ucircumflex
/Udieresis /Yacute /Thorn /germandbls /agrave
/aacute /acircumflex /atilde /adieresis /aring
/ae /ccedilla /egrave /eacute /ecircumflex
/edieresis /igrave /iacute /icircumflex /idieresis
/eth /ntilde /ograve /oacute /ocircumflex
/otilde /odieresis /divide /oslash /ugrave
/uacute /ucircumflex /udieresis /yacute /thorn
/ydieresis
] def
%%EndResource
%FOPBeginFontReencode
/Courier-Oblique findfont
dup length dict begin
  {1 index /FID ne {def} {pop pop} ifelse} forall
  /Encoding WinAnsiEncoding def
  currentdict
end
/Courier-Oblique exch definefont pop
/Courier-BoldOblique findfont
dup length dict begin
  {1 index /FID ne {def} {pop pop} ifelse} forall
  /Encoding WinAnsiEncoding def
  currentdict
end
/Courier-BoldOblique exch definefont pop
/Courier-Bold findfont
dup length dict begin
  {1 index /FID ne {def} {pop pop} ifelse} forall
  /Encoding WinAnsiEncoding def
  currentdict
end
/Courier-Bold exch definefont pop
/Helvetica findfont
dup length dict begin
  {1 index /FID ne {def} {pop pop} ifelse} forall
  /Encoding WinAnsiEncoding def
  currentdict
end
/Helvetica exch definefont pop
/Helvetica-Oblique findfont
dup length dict begin
  {1 index /FID ne {def} {pop pop} ifelse} forall
  /Encoding WinAnsiEncoding def
  currentdict
end
/Helvetica-Oblique exch definefont pop
/Helvetica-Bold findfont
dup length dict begin
  {1 index /FID ne {def} {pop pop} ifelse} forall
  /Encoding WinAnsiEncoding def
  currentdict
end
/Helvetica-Bold exch definefont pop
/Helvetica-BoldOblique findfont
dup length dict begin
  {1 index /FID ne {def} {pop pop} ifelse} forall
  /Encoding WinAnsiEncoding def
  currentdict
end
/Helvetica-BoldOblique exch definefont pop
/Times-Roman findfont
dup length dict begin
  {1 index /FID ne {def} {pop pop} ifelse} forall
  /Encoding WinAnsiEncoding def
  currentdict
end
/Times-Roman exch definefont pop
/Times-Italic findfont
dup length dict begin
  {1 index /FID ne {def} {pop pop} ifelse} forall
  /Encoding WinAnsiEncoding def
  currentdict
end
/Times-Italic exch definefont pop
/Times-Bold findfont
dup length dict begin
  {1 index /FID ne {def} {pop pop} ifelse} forall
  /Encoding WinAnsiEncoding def
  currentdict
end
/Times-Bold exch definefont pop
/Times-BoldItalic findfont
dup length dict begin
  {1 index /FID ne {def} {pop pop} ifelse} forall
  /Encoding WinAnsiEncoding def
  currentdict
end
/Times-BoldItalic exch definefont pop
/Courier findfont
dup length dict begin
  {1 index /FID ne {def} {pop pop} ifelse} forall
  /Encoding WinAnsiEncoding def
  currentdict
end
/Courier exch definefont pop
%FOPEndFontReencode
%%EndProlog
%%Page: 1 1
%%PageBoundingBox: 0 0 420 315
%%BeginPageSetup
[1 0 0 -1 0 315] CT
%%EndPageSetup
GS
[0.75 0 0 0.75 0 0] CT
1 GC
N
0 0 560 420 re
f
GR
GS
[0.75 0 0 0.75 0 0] CT
1 GC
N
0 0 560 420 re
f
GR
GS
[0.75 0 0 0.75 0 0] CT
1 GC
N
73 374 M
507 374 L
507 31 L
73 31 L
cp
f
GR
GS
[0.75 0 0 0.75 0 0] CT
0.149 GC
2 setlinecap
1 LJ
0.667 LW
N
73 374 M
507 374 L
S
GR
GS
[0.75 0 0 0.75 0 0] CT
0.149 GC
2 setlinecap
1 LJ
0.667 LW
N
73 31 M
507 31 L
S
GR
GS
[0.75 0 0 0.75 0 0] CT
0.149 GC
2 setlinecap
1 LJ
0.667 LW
N
73 374 M
73 369.66 L
S
GR
GS
[0.75 0 0 0.75 0 0] CT
0.149 GC
2 setlinecap
1 LJ
0.667 LW
N
159.8 374 M
159.8 369.66 L
S
GR
GS
[0.75 0 0 0.75 0 0] CT
0.149 GC
2 setlinecap
1 LJ
0.667 LW
N
246.6 374 M
246.6 369.66 L
S
GR
GS
[0.75 0 0 0.75 0 0] CT
0.149 GC
2 setlinecap
1 LJ
0.667 LW
N
333.4 374 M
333.4 369.66 L
S
GR
GS
[0.75 0 0 0.75 0 0] CT
0.149 GC
2 setlinecap
1 LJ
0.667 LW
N
420.2 374 M
420.2 369.66 L
S
GR
GS
[0.75 0 0 0.75 0 0] CT
0.149 GC
2 setlinecap
1 LJ
0.667 LW
N
507 374 M
507 369.66 L
S
GR
GS
[0.75 0 0 0.75 0 0] CT
0.149 GC
2 setlinecap
1 LJ
0.667 LW
N
73 31 M
73 35.34 L
S
GR
GS
[0.75 0 0 0.75 0 0] CT
0.149 GC
2 setlinecap
1 LJ
0.667 LW
N
159.8 31 M
159.8 35.34 L
S
GR
GS
[0.75 0 0 0.75 0 0] CT
0.149 GC
2 setlinecap
1 LJ
0.667 LW
N
246.6 31 M
246.6 35.34 L
S
GR
GS
[0.75 0 0 0.75 0 0] CT
0.149 GC
2 setlinecap
1 LJ
0.667 LW
N
333.4 31 M
333.4 35.34 L
S
GR
GS
[0.75 0 0 0.75 0 0] CT
0.149 GC
2 setlinecap
1 LJ
0.667 LW
N
420.2 31 M
420.2 35.34 L
S
GR
GS
[0.75 0 0 0.75 0 0] CT
0.149 GC
2 setlinecap
1 LJ
0.667 LW
N
507 31 M
507 35.34 L
S
GR
GS
[0.75 0 0 0.75 54.75 284.50001] CT
0.149 GC
/Helvetica 13.333 F
GS
[1 0 0 1 0 0] CT
-4.5 13 moveto 
1 -1 scale
(0) t 
GR
GR
GS
[0.75 0 0 0.75 119.85 284.50001] CT
0.149 GC
/Helvetica 13.333 F
GS
[1 0 0 1 0 0] CT
-8.5 13 moveto 
1 -1 scale
(20) t 
GR
GR
GS
[0.75 0 0 0.75 184.95 284.50001] CT
0.149 GC
/Helvetica 13.333 F
GS
[1 0 0 1 0 0] CT
-8.5 13 moveto 
1 -1 scale
(40) t 
GR
GR
GS
[0.75 0 0 0.75 250.05 284.50001] CT
0.149 GC
/Helvetica 13.333 F
GS
[1 0 0 1 0 0] CT
-8.5 13 moveto 
1 -1 scale
(60) t 
GR
GR
GS
[0.75 0 0 0.75 315.15001 284.50001] CT
0.149 GC
/Helvetica 13.333 F
GS
[1 0 0 1 0 0] CT
-8.5 13 moveto 
1 -1 scale
(80) t 
GR
GR
GS
[0.75 0 0 0.75 380.25 284.50001] CT
0.149 GC
/Helvetica 13.333 F
GS
[1 0 0 1 0 0] CT
-13 13 moveto 
1 -1 scale
(100) t 
GR
GR
GS
[0.75 0 0 0.75 0 0] CT
0.149 GC
2 setlinecap
1 LJ
0.667 LW
N
73 374 M
73 31 L
S
GR
GS
[0.75 0 0 0.75 0 0] CT
0.149 GC
2 setlinecap
1 LJ
0.667 LW
N
507 374 M
507 31 L
S
GR
GS
[0.75 0 0 0.75 0 0] CT
0.149 GC
2 setlinecap
1 LJ
0.667 LW
N
73 374 M
77.34 374 L
S
GR
GS
[0.75 0 0 0.75 0 0] CT
0.149 GC
2 setlinecap
1 LJ
0.667 LW
N
73 339.7 M
77.34 339.7 L
S
GR
GS
[0.75 0 0 0.75 0 0] CT
0.149 GC
2 setlinecap
1 LJ
0.667 LW
N
73 305.4 M
77.34 305.4 L
S
GR
GS
[0.75 0 0 0.75 0 0] CT
0.149 GC
2 setlinecap
1 LJ
0.667 LW
N
73 271.1 M
77.34 271.1 L
S
GR
GS
[0.75 0 0 0.75 0 0] CT
0.149 GC
2 setlinecap
1 LJ
0.667 LW
N
73 236.8 M
77.34 236.8 L
S
GR
GS
[0.75 0 0 0.75 0 0] CT
0.149 GC
2 setlinecap
1 LJ
0.667 LW
N
73 202.5 M
77.34 202.5 L
S
GR
GS
[0.75 0 0 0.75 0 0] CT
0.149 GC
2 setlinecap
1 LJ
0.667 LW
N
73 168.2 M
77.34 168.2 L
S
GR
GS
[0.75 0 0 0.75 0 0] CT
0.149 GC
2 setlinecap
1 LJ
0.667 LW
N
73 133.9 M
77.34 133.9 L
S
GR
GS
[0.75 0 0 0.75 0 0] CT
0.149 GC
2 setlinecap
1 LJ
0.667 LW
N
73 99.6 M
77.34 99.6 L
S
GR
GS
[0.75 0 0 0.75 0 0] CT
0.149 GC
2 setlinecap
1 LJ
0.667 LW
N
73 65.3 M
77.34 65.3 L
S
GR
GS
[0.75 0 0 0.75 0 0] CT
0.149 GC
2 setlinecap
1 LJ
0.667 LW
N
73 31 M
77.34 31 L
S
GR
GS
[0.75 0 0 0.75 0 0] CT
0.149 GC
2 setlinecap
1 LJ
0.667 LW
N
507 374 M
502.66 374 L
S
GR
GS
[0.75 0 0 0.75 0 0] CT
0.149 GC
2 setlinecap
1 LJ
0.667 LW
N
507 339.7 M
502.66 339.7 L
S
GR
GS
[0.75 0 0 0.75 0 0] CT
0.149 GC
2 setlinecap
1 LJ
0.667 LW
N
507 305.4 M
502.66 305.4 L
S
GR
GS
[0.75 0 0 0.75 0 0] CT
0.149 GC
2 setlinecap
1 LJ
0.667 LW
N
507 271.1 M
502.66 271.1 L
S
GR
GS
[0.75 0 0 0.75 0 0] CT
0.149 GC
2 setlinecap
1 LJ
0.667 LW
N
507 236.8 M
502.66 236.8 L
S
GR
GS
[0.75 0 0 0.75 0 0] CT
0.149 GC
2 setlinecap
1 LJ
0.667 LW
N
507 202.5 M
502.66 202.5 L
S
GR
GS
[0.75 0 0 0.75 0 0] CT
0.149 GC
2 setlinecap
1 LJ
0.667 LW
N
507 168.2 M
502.66 168.2 L
S
GR
GS
[0.75 0 0 0.75 0 0] CT
0.149 GC
2 setlinecap
1 LJ
0.667 LW
N
507 133.9 M
502.66 133.9 L
S
GR
GS
[0.75 0 0 0.75 0 0] CT
0.149 GC
2 setlinecap
1 LJ
0.667 LW
N
507 99.6 M
502.66 99.6 L
S
GR
GS
[0.75 0 0 0.75 0 0] CT
0.149 GC
2 setlinecap
1 LJ
0.667 LW
N
507 65.3 M
502.66 65.3 L
S
GR
GS
[0.75 0 0 0.75 0 0] CT
0.149 GC
2 setlinecap
1 LJ
0.667 LW
N
507 31 M
502.66 31 L
S
GR
GS
[0.75 0 0 0.75 50.75 280.5] CT
0.149 GC
/Helvetica 13.333 F
GS
[1 0 0 1 0 0] CT
-9 4.5 moveto 
1 -1 scale
(0) t 
GR
GR
GS
[0.75 0 0 0.75 50.75 254.77501] CT
0.149 GC
/Helvetica 13.333 F
GS
[1 0 0 1 0 0] CT
-17 4.5 moveto 
1 -1 scale
(10) t 
GR
GR
GS
[0.75 0 0 0.75 50.75 229.05] CT
0.149 GC
/Helvetica 13.333 F
GS
[1 0 0 1 0 0] CT
-17 4.5 moveto 
1 -1 scale
(20) t 
GR
GR
GS
[0.75 0 0 0.75 50.75 203.325] CT
0.149 GC
/Helvetica 13.333 F
GS
[1 0 0 1 0 0] CT
-17 4.5 moveto 
1 -1 scale
(30) t 
GR
GR
GS
[0.75 0 0 0.75 50.75 177.6] CT
0.149 GC
/Helvetica 13.333 F
GS
[1 0 0 1 0 0] CT
-17 4.5 moveto 
1 -1 scale
(40) t 
GR
GR
GS
[0.75 0 0 0.75 50.75 151.875] CT
0.149 GC
/Helvetica 13.333 F
GS
[1 0 0 1 0 0] CT
-17 4.5 moveto 
1 -1 scale
(50) t 
GR
GR
GS
[0.75 0 0 0.75 50.75 126.15] CT
0.149 GC
/Helvetica 13.333 F
GS
[1 0 0 1 0 0] CT
-17 4.5 moveto 
1 -1 scale
(60) t 
GR
GR
GS
[0.75 0 0 0.75 50.75 100.425] CT
0.149 GC
/Helvetica 13.333 F
GS
[1 0 0 1 0 0] CT
-17 4.5 moveto 
1 -1 scale
(70) t 
GR
GR
GS
[0.75 0 0 0.75 50.75 74.7] CT
0.149 GC
/Helvetica 13.333 F
GS
[1 0 0 1 0 0] CT
-17 4.5 moveto 
1 -1 scale
(80) t 
GR
GR
GS
[0.75 0 0 0.75 50.75 48.975] CT
0.149 GC
/Helvetica 13.333 F
GS
[1 0 0 1 0 0] CT
-17 4.5 moveto 
1 -1 scale
(90) t 
GR
GR
GS
[0.75 0 0 0.75 50.75 23.25] CT
0.149 GC
/Helvetica 13.333 F
GS
[1 0 0 1 0 0] CT
-26 4.5 moveto 
1 -1 scale
(100) t 
GR
GR
GS
[0.75 0 0 0.75 256.25713 199.42461] CT
0 0.447 0.741 RC
N
1.333 0 M
1.333 0.736 0.736 1.333 0 1.333 C
-0.736 1.333 -1.333 0.736 -1.333 0 C
-1.333 -0.736 -0.736 -1.333 0 -1.333 C
0.736 -1.333 1.333 -0.736 1.333 0 C
cp
f
GR
GS
[0.75 0 0 0.75 65.50478 217.86623] CT
0 0.447 0.741 RC
N
/f-1057828618{1.333 0 M
1.333 0.736 0.736 1.333 0 1.333 C
-0.736 1.333 -1.333 0.736 -1.333 0 C
-1.333 -0.736 -0.736 -1.333 0 -1.333 C
0.736 -1.333 1.333 -0.736 1.333 0 C
cp}def
f-1057828618
f
GR
GS
[0.75 0 0 0.75 285.88293 245.53306] CT
0 0.447 0.741 RC
N
f-1057828618
f
GR
GS
[0.75 0 0 0.75 61.70288 220.8517] CT
0 0.447 0.741 RC
N
f-1057828618
f
GR
GS
[0.75 0 0 0.75 77.64666 101.34876] CT
0 0.447 0.741 RC
N
f-1057828618
f
GR
GS
[0.75 0 0 0.75 165.63019 233.83379] CT
0 0.447 0.741 RC
N
f-1057828618
f
GR
GS
[0.75 0 0 0.75 88.79312 185.67213] CT
0 0.447 0.741 RC
N
f-1057828618
f
GR
GS
[0.75 0 0 0.75 242.22432 273.54247] CT
0 0.447 0.741 RC
N
f-1057828618
f
GR
GS
[0.75 0 0 0.75 111.67861 184.80757] CT
0 0.447 0.741 RC
N
f-1057828618
f
GR
GS
[0.75 0 0 0.75 222.96904 201.03241] CT
0 0.447 0.741 RC
N
f-1057828618
f
GR
GS
[0.75 0 0 0.75 102.73244 104.59016] CT
0 0.447 0.741 RC
N
f-1057828618
f
GR
GS
[0.75 0 0 0.75 218.56146 250.99358] CT
0 0.447 0.741 RC
N
f-1057828618
f
GR
GS
[0.75 0 0 0.75 60.03912 273.84201] CT
0 0.447 0.741 RC
N
f-1057828618
f
GR
GS
[0.75 0 0 0.75 91.37172 156.87796] CT
0 0.447 0.741 RC
N
f-1057828618
f
GR
GS
[0.75 0 0 0.75 157.01727 146.26306] CT
0 0.447 0.741 RC
N
f-1057828618
f
GR
GS
[0.75 0 0 0.75 172.17777 260.88856] CT
0 0.447 0.741 RC
N
f-1057828618
f
GR
GS
[0.75 0 0 0.75 295.24335 232.48846] CT
0 0.447 0.741 RC
N
f-1057828618
f
GR
GS
[0.75 0 0 0.75 112.15735 167.44823] CT
0 0.447 0.741 RC
N
f-1057828618
f
GR
GS
[0.75 0 0 0.75 164.54026 149.06344] CT
0 0.447 0.741 RC
N
f-1057828618
f
GR
GS
[0.75 0 0 0.75 144.75106 250.59734] CT
0 0.447 0.741 RC
N
f-1057828618
f
GR
GS
[0.75 0 0 0.75 131.52125 172.33905] CT
0 0.447 0.741 RC
N
f-1057828618
f
GR
GS
[0.75 0 0 0.75 66.14313 159.74092] CT
0 0.447 0.741 RC
N
f-1057828618
f
GR
GS
[0.75 0 0 0.75 58.68087 62.89284] CT
0 0.447 0.741 RC
N
f-1057828618
f
GR
GS
[0.75 0 0 0.75 266.9859 254.68975] CT
0 0.447 0.741 RC
N
f-1057828618
f
GR
GS
[0.75 0 0 0.75 153.29933 145.11542] CT
0 0.447 0.741 RC
N
f-1057828618
f
GR
GS
[0.75 0 0 0.75 129.1546 83.65109] CT
0 0.447 0.741 RC
N
f-1057828618
f
GR
GS
[0.75 0 0 0.75 84.92413 185.30312] CT
0 0.447 0.741 RC
N
f-1057828618
f
GR
GS
[0.75 0 0 0.75 272.1983 220.89686] CT
0 0.447 0.741 RC
N
f-1057828618
f
GR
GS
[0.75 0 0 0.75 73.83549 117.49245] CT
0 0.447 0.741 RC
N
f-1057828618
f
GR
GS
[0.75 0 0 0.75 97.48104 91.72963] CT
0 0.447 0.741 RC
N
f-1057828618
f
GR
GS
[0.75 0 0 0.75 142.17225 208.53886] CT
0 0.447 0.741 RC
N
f-1057828618
f
GR
GS
[0.75 0 0 0.75 59.56084 55.90769] CT
0 0.447 0.741 RC
N
f-1057828618
f
GR
GS
[0.75 0 0 0.75 166.90413 221.69138] CT
0 0.447 0.741 RC
N
f-1057828618
f
GR
GS
[0.75 0 0 0.75 130.60281 244.40783] CT
0 0.447 0.741 RC
N
f-1057828618
f
GR
GS
[0.75 0 0 0.75 226.67251 226.43729] CT
0 0.447 0.741 RC
N
f-1057828618
f
GR
GS
[0.75 0 0 0.75 127.79824 153.26506] CT
0 0.447 0.741 RC
N
f-1057828618
f
GR
GS
[0.75 0 0 0.75 86.9772 94.16796] CT
0 0.447 0.741 RC
N
f-1057828618
f
GR
GS
[0.75 0 0 0.75 333.49482 256.78823] CT
0 0.447 0.741 RC
N
f-1057828618
f
GR
GS
[0.75 0 0 0.75 163.12254 113.71097] CT
0 0.447 0.741 RC
N
f-1057828618
f
GR
GS
[0.75 0 0 0.75 181.68721 137.64204] CT
0 0.447 0.741 RC
N
f-1057828618
f
GR
GS
[0.75 0 0 0.75 151.56765 170.53154] CT
0 0.447 0.741 RC
N
f-1057828618
f
GR
GS
[0.75 0 0 0.75 256.84286 208.08279] CT
0 0.447 0.741 RC
N
f-1057828618
f
GR
GS
[0.75 0 0 0.75 120.44189 79.35504] CT
0 0.447 0.741 RC
N
f-1057828618
f
GR
GS
[0.75 0 0 0.75 95.95641 74.17393] CT
0 0.447 0.741 RC
N
f-1057828618
f
GR
GS
[0.75 0 0 0.75 65.87227 222.84666] CT
0 0.447 0.741 RC
N
f-1057828618
f
GR
GS
[0.75 0 0 0.75 203.15343 189.61179] CT
0 0.447 0.741 RC
N
f-1057828618
f
GR
GS
[0.75 0 0 0.75 209.93502 275.48772] CT
0 0.447 0.741 RC
N
f-1057828618
f
GR
GS
[0.75 0 0 0.75 87.30764 149.62231] CT
0 0.447 0.741 RC
N
f-1057828618
f
GR
GS
[0.75 0 0 0.75 55.91281 61.64661] CT
0 0.447 0.741 RC
N
f-1057828618
f
GR
GS
[0.75 0 0 0.75 147.38945 121.55205] CT
0 0.447 0.741 RC
N
f-1057828618
f
GR
GS
[0.75 0 0 0.75 203.59685 215.68755] CT
0 0.447 0.741 RC
N
f-1057828618
f
GR
GS
[0.75 0 0 0.75 172.02968 212.41349] CT
0 0.447 0.741 RC
N
f-1057828618
f
GR
GS
[0.75 0 0 0.75 191.06194 154.79719] CT
0 0.447 0.741 RC
N
f-1057828618
f
GR
GS
[0.75 0 0 0.75 65.11005 60.85276] CT
0 0.447 0.741 RC
N
f-1057828618
f
GR
GS
[0.75 0 0 0.75 230.09173 267.63446] CT
0 0.447 0.741 RC
N
f-1057828618
f
GR
GS
[0.75 0 0 0.75 75.13055 105.75399] CT
0 0.447 0.741 RC
N
f-1057828618
f
GR
GS
[0.75 0 0 0.75 320.94825 234.79914] CT
0 0.447 0.741 RC
N
f-1057828618
f
GR
GS
[0.75 0 0 0.75 277.85479 271.46297] CT
0 0.447 0.741 RC
N
f-1057828618
f
GR
GS
[0.75 0 0 0.75 91.90422 96.75247] CT
0 0.447 0.741 RC
N
f-1057828618
f
GR
GS
[0.75 0 0 0.75 131.9031 187.31172] CT
0 0.447 0.741 RC
N
f-1057828618
f
GR
GS
[0.75 0 0 0.75 118.07065 155.95847] CT
0 0.447 0.741 RC
N
f-1057828618
f
GR
GS
[0.75 0 0 0.75 64.31967 249.87538] CT
0 0.447 0.741 RC
N
f-1057828618
f
GR
GS
[0.75 0 0 0.75 136.56888 171.57812] CT
0 0.447 0.741 RC
N
f-1057828618
f
GR
GS
[0.75 0 0 0.75 153.38981 124.71459] CT
0 0.447 0.741 RC
N
f-1057828618
f
GR
GS
[0.75 0 0 0.75 75.31412 225.4652] CT
0 0.447 0.741 RC
N
f-1057828618
f
GR
GS
[0.75 0 0 0.75 230.52493 241.08549] CT
0 0.447 0.741 RC
N
f-1057828618
f
GR
GS
[0.75 0 0 0.75 189.93229 205.16627] CT
0 0.447 0.741 RC
N
f-1057828618
f
GR
GS
[0.75 0 0 0.75 118.88844 171.63412] CT
0 0.447 0.741 RC
N
f-1057828618
f
GR
GS
[0.75 0 0 0.75 97.03746 184.13644] CT
0 0.447 0.741 RC
N
f-1057828618
f
GR
GS
[0.75 0 0 0.75 239.87737 254.75587] CT
0 0.447 0.741 RC
N
f-1057828618
f
GR
GS
[0.75 0 0 0.75 70.05507 37.44548] CT
0 0.447 0.741 RC
N
f-1057828618
f
GR
GS
[0.75 0 0 0.75 148.13958 163.12701] CT
0 0.447 0.741 RC
N
f-1057828618
f
GR
GS
[0.75 0 0 0.75 106.96375 144.29354] CT
0 0.447 0.741 RC
N
f-1057828618
f
GR
GS
[0.75 0 0 0.75 89.83832 258.22069] CT
0 0.447 0.741 RC
N
f-1057828618
f
GR
GS
[0.75 0 0 0.75 94.90578 85.31311] CT
0 0.447 0.741 RC
N
f-1057828618
f
GR
GS
[0.75 0 0 0.75 103.67817 220.72213] CT
0 0.447 0.741 RC
N
f-1057828618
f
GR
GS
[0.75 0 0 0.75 135.90994 103.14518] CT
0 0.447 0.741 RC
N
f-1057828618
f
GR
GS
[0.75 0 0 0.75 117.94153 87.29525] CT
0 0.447 0.741 RC
N
f-1057828618
f
GR
GS
[0.75 0 0 0.75 117.45677 183.60382] CT
0 0.447 0.741 RC
N
f-1057828618
f
GR
GS
[0.75 0 0 0.75 189.63791 129.89439] CT
0 0.447 0.741 RC
N
f-1057828618
f
GR
GS
[0.75 0 0 0.75 156.554 173.97523] CT
0 0.447 0.741 RC
N
f-1057828618
f
GR
GS
[0.75 0 0 0.75 111.92164 275.27589] CT
0 0.447 0.741 RC
N
f-1057828618
f
GR
GS
[0.75 0 0 0.75 160.72281 232.17016] CT
0 0.447 0.741 RC
N
f-1057828618
f
GR
GS
[0.75 0 0 0.75 308.5142 252.95435] CT
0 0.447 0.741 RC
N
f-1057828618
f
GR
GS
[0.75 0 0 0.75 120.34035 134.27443] CT
0 0.447 0.741 RC
N
f-1057828618
f
GR
GS
[0.75 0 0 0.75 157.63859 121.4603] CT
0 0.447 0.741 RC
N
f-1057828618
f
GR
GS
[0.75 0 0 0.75 156.49995 232.21832] CT
0 0.447 0.741 RC
N
f-1057828618
f
GR
GS
[0.75 0 0 0.75 87.92083 175.75362] CT
0 0.447 0.741 RC
N
f-1057828618
f
GR
GS
[0.75 0 0 0.75 233.16689 184.16857] CT
0 0.447 0.741 RC
N
f-1057828618
f
GR
GS
[0.75 0 0 0.75 138.05158 247.93016] CT
0 0.447 0.741 RC
N
f-1057828618
f
GR
GS
[0.75 0 0 0.75 214.19263 237.77959] CT
0 0.447 0.741 RC
N
f-1057828618
f
GR
GS
[0.75 0 0 0.75 78.01768 187.87388] CT
0 0.447 0.741 RC
N
f-1057828618
f
GR
GS
[0.75 0 0 0.75 357.7137 270.58221] CT
0 0.447 0.741 RC
N
f-1057828618
f
GR
GS
[0.75 0 0 0.75 161.78362 120.31377] CT
0 0.447 0.741 RC
N
f-1057828618
f
GR
GS
[0.75 0 0 0.75 80.3295 172.57682] CT
0 0.447 0.741 RC
N
f-1057828618
f
GR
GS
[0.75 0 0 0.75 78.60402 276.38418] CT
0 0.447 0.741 RC
N
f-1057828618
f
GR
GS
[0.75 0 0 0.75 173.9357 125.65132] CT
0 0.447 0.741 RC
N
f-1057828618
f
GR
GS
[0.75 0 0 0.75 79.60246 159.46331] CT
0 0.447 0.741 RC
N
f-1057828618
f
GR
GS
[0.75 0 0 0.75 92.49508 193.02088] CT
0 0.447 0.741 RC
N
f-1057828618
f
GR
GS
[0.75 0 0 0.75 196.742 186.7607] CT
0 0.447 0.741 RC
N
f-1057828618
f
GR
%%Trailer
%%Pages: 1
%%EOF
